2_tap_n4/filtros2.vcd
$date
    Mar  3, 2020  16:23:14
$end
$version
    TOOL:	ncsim(64)	15.20-p001
$end
$timescale
    1 ps
$end

$scope module banch $end

$scope module DUT $end
$var wire      1 !    linha[5] [9] $end
$var wire      1 "    linha[5] [8] $end
$var wire      1 #    linha[5] [7] $end
$var wire      1 $    linha[5] [6] $end
$var wire      1 %    linha[5] [5] $end
$var wire      1 &    linha[5] [4] $end
$var wire      1 '    linha[5] [3] $end
$var wire      1 (    linha[5] [2] $end
$var wire      1 )    linha[5] [1] $end
$var wire      1 *    linha[5] [0] $end
$var wire      1 +    linha[4] [9] $end
$var wire      1 ,    linha[4] [8] $end
$var wire      1 -    linha[4] [7] $end
$var wire      1 .    linha[4] [6] $end
$var wire      1 /    linha[4] [5] $end
$var wire      1 0    linha[4] [4] $end
$var wire      1 1    linha[4] [3] $end
$var wire      1 2    linha[4] [2] $end
$var wire      1 3    linha[4] [1] $end
$var wire      1 4    linha[4] [0] $end
$var wire      1 5    linha[3] [9] $end
$var wire      1 6    linha[3] [8] $end
$var wire      1 7    linha[3] [7] $end
$var wire      1 8    linha[3] [6] $end
$var wire      1 9    linha[3] [5] $end
$var wire      1 :    linha[3] [4] $end
$var wire      1 ;    linha[3] [3] $end
$var wire      1 <    linha[3] [2] $end
$var wire      1 =    linha[3] [1] $end
$var wire      1 >    linha[3] [0] $end
$var wire      1 ?    linha[2] [9] $end
$var wire      1 @    linha[2] [8] $end
$var wire      1 A    linha[2] [7] $end
$var wire      1 B    linha[2] [6] $end
$var wire      1 C    linha[2] [5] $end
$var wire      1 D    linha[2] [4] $end
$var wire      1 E    linha[2] [3] $end
$var wire      1 F    linha[2] [2] $end
$var wire      1 G    linha[2] [1] $end
$var wire      1 H    linha[2] [0] $end
$var wire      1 I    linha[1] [9] $end
$var wire      1 J    linha[1] [8] $end
$var wire      1 K    linha[1] [7] $end
$var wire      1 L    linha[1] [6] $end
$var wire      1 M    linha[1] [5] $end
$var wire      1 N    linha[1] [4] $end
$var wire      1 O    linha[1] [3] $end
$var wire      1 P    linha[1] [2] $end
$var wire      1 Q    linha[1] [1] $end
$var wire      1 R    linha[1] [0] $end
$var wire      1 S    linha[0] [9] $end
$var wire      1 T    linha[0] [8] $end
$var wire      1 U    linha[0] [7] $end
$var wire      1 V    linha[0] [6] $end
$var wire      1 W    linha[0] [5] $end
$var wire      1 X    linha[0] [4] $end
$var wire      1 Y    linha[0] [3] $end
$var wire      1 Z    linha[0] [2] $end
$var wire      1 [    linha[0] [1] $end
$var wire      1 \    linha[0] [0] $end
$var wire      1 ]    clk  $end
$var wire      1 ^    rst  $end
$var wire      1 _    out_inter[14] [9] $end
$var wire      1 `    out_inter[14] [8] $end
$var wire      1 a    out_inter[14] [7] $end
$var wire      1 b    out_inter[14] [6] $end
$var wire      1 c    out_inter[14] [5] $end
$var wire      1 d    out_inter[14] [4] $end
$var wire      1 e    out_inter[14] [3] $end
$var wire      1 f    out_inter[14] [2] $end
$var wire      1 g    out_inter[14] [1] $end
$var wire      1 h    out_inter[14] [0] $end
$var wire      1 i    out_inter[13] [9] $end
$var wire      1 j    out_inter[13] [8] $end
$var wire      1 k    out_inter[13] [7] $end
$var wire      1 l    out_inter[13] [6] $end
$var wire      1 m    out_inter[13] [5] $end
$var wire      1 n    out_inter[13] [4] $end
$var wire      1 o    out_inter[13] [3] $end
$var wire      1 p    out_inter[13] [2] $end
$var wire      1 q    out_inter[13] [1] $end
$var wire      1 r    out_inter[13] [0] $end
$var wire      1 s    out_inter[12] [9] $end
$var wire      1 t    out_inter[12] [8] $end
$var wire      1 u    out_inter[12] [7] $end
$var wire      1 v    out_inter[12] [6] $end
$var wire      1 w    out_inter[12] [5] $end
$var wire      1 x    out_inter[12] [4] $end
$var wire      1 y    out_inter[12] [3] $end
$var wire      1 z    out_inter[12] [2] $end
$var wire      1 {    out_inter[12] [1] $end
$var wire      1 |    out_inter[12] [0] $end
$var wire      1 }    out_inter[11] [9] $end
$var wire      1 ~    out_inter[11] [8] $end
$var wire      1 !!   out_inter[11] [7] $end
$var wire      1 "!   out_inter[11] [6] $end
$var wire      1 #!   out_inter[11] [5] $end
$var wire      1 $!   out_inter[11] [4] $end
$var wire      1 %!   out_inter[11] [3] $end
$var wire      1 &!   out_inter[11] [2] $end
$var wire      1 '!   out_inter[11] [1] $end
$var wire      1 (!   out_inter[11] [0] $end
$var wire      1 )!   out_inter[10] [9] $end
$var wire      1 *!   out_inter[10] [8] $end
$var wire      1 +!   out_inter[10] [7] $end
$var wire      1 ,!   out_inter[10] [6] $end
$var wire      1 -!   out_inter[10] [5] $end
$var wire      1 .!   out_inter[10] [4] $end
$var wire      1 /!   out_inter[10] [3] $end
$var wire      1 0!   out_inter[10] [2] $end
$var wire      1 1!   out_inter[10] [1] $end
$var wire      1 2!   out_inter[10] [0] $end
$var wire      1 3!   out_inter[9] [9] $end
$var wire      1 4!   out_inter[9] [8] $end
$var wire      1 5!   out_inter[9] [7] $end
$var wire      1 6!   out_inter[9] [6] $end
$var wire      1 7!   out_inter[9] [5] $end
$var wire      1 8!   out_inter[9] [4] $end
$var wire      1 9!   out_inter[9] [3] $end
$var wire      1 :!   out_inter[9] [2] $end
$var wire      1 ;!   out_inter[9] [1] $end
$var wire      1 <!   out_inter[9] [0] $end
$var wire      1 =!   out_inter[8] [9] $end
$var wire      1 >!   out_inter[8] [8] $end
$var wire      1 ?!   out_inter[8] [7] $end
$var wire      1 @!   out_inter[8] [6] $end
$var wire      1 A!   out_inter[8] [5] $end
$var wire      1 B!   out_inter[8] [4] $end
$var wire      1 C!   out_inter[8] [3] $end
$var wire      1 D!   out_inter[8] [2] $end
$var wire      1 E!   out_inter[8] [1] $end
$var wire      1 F!   out_inter[8] [0] $end
$var wire      1 G!   out_inter[7] [9] $end
$var wire      1 H!   out_inter[7] [8] $end
$var wire      1 I!   out_inter[7] [7] $end
$var wire      1 J!   out_inter[7] [6] $end
$var wire      1 K!   out_inter[7] [5] $end
$var wire      1 L!   out_inter[7] [4] $end
$var wire      1 M!   out_inter[7] [3] $end
$var wire      1 N!   out_inter[7] [2] $end
$var wire      1 O!   out_inter[7] [1] $end
$var wire      1 P!   out_inter[7] [0] $end
$var wire      1 Q!   out_inter[6] [9] $end
$var wire      1 R!   out_inter[6] [8] $end
$var wire      1 S!   out_inter[6] [7] $end
$var wire      1 T!   out_inter[6] [6] $end
$var wire      1 U!   out_inter[6] [5] $end
$var wire      1 V!   out_inter[6] [4] $end
$var wire      1 W!   out_inter[6] [3] $end
$var wire      1 X!   out_inter[6] [2] $end
$var wire      1 Y!   out_inter[6] [1] $end
$var wire      1 Z!   out_inter[6] [0] $end
$var wire      1 [!   out_inter[5] [9] $end
$var wire      1 \!   out_inter[5] [8] $end
$var wire      1 ]!   out_inter[5] [7] $end
$var wire      1 ^!   out_inter[5] [6] $end
$var wire      1 _!   out_inter[5] [5] $end
$var wire      1 `!   out_inter[5] [4] $end
$var wire      1 a!   out_inter[5] [3] $end
$var wire      1 b!   out_inter[5] [2] $end
$var wire      1 c!   out_inter[5] [1] $end
$var wire      1 d!   out_inter[5] [0] $end
$var wire      1 e!   out_inter[4] [9] $end
$var wire      1 f!   out_inter[4] [8] $end
$var wire      1 g!   out_inter[4] [7] $end
$var wire      1 h!   out_inter[4] [6] $end
$var wire      1 i!   out_inter[4] [5] $end
$var wire      1 j!   out_inter[4] [4] $end
$var wire      1 k!   out_inter[4] [3] $end
$var wire      1 l!   out_inter[4] [2] $end
$var wire      1 m!   out_inter[4] [1] $end
$var wire      1 n!   out_inter[4] [0] $end
$var wire      1 o!   out_inter[3] [9] $end
$var wire      1 p!   out_inter[3] [8] $end
$var wire      1 q!   out_inter[3] [7] $end
$var wire      1 r!   out_inter[3] [6] $end
$var wire      1 s!   out_inter[3] [5] $end
$var wire      1 t!   out_inter[3] [4] $end
$var wire      1 u!   out_inter[3] [3] $end
$var wire      1 v!   out_inter[3] [2] $end
$var wire      1 w!   out_inter[3] [1] $end
$var wire      1 x!   out_inter[3] [0] $end
$var wire      1 y!   out_inter[2] [9] $end
$var wire      1 z!   out_inter[2] [8] $end
$var wire      1 {!   out_inter[2] [7] $end
$var wire      1 |!   out_inter[2] [6] $end
$var wire      1 }!   out_inter[2] [5] $end
$var wire      1 ~!   out_inter[2] [4] $end
$var wire      1 !"   out_inter[2] [3] $end
$var wire      1 ""   out_inter[2] [2] $end
$var wire      1 #"   out_inter[2] [1] $end
$var wire      1 $"   out_inter[2] [0] $end
$var wire      1 %"   out_inter[1] [9] $end
$var wire      1 &"   out_inter[1] [8] $end
$var wire      1 '"   out_inter[1] [7] $end
$var wire      1 ("   out_inter[1] [6] $end
$var wire      1 )"   out_inter[1] [5] $end
$var wire      1 *"   out_inter[1] [4] $end
$var wire      1 +"   out_inter[1] [3] $end
$var wire      1 ,"   out_inter[1] [2] $end
$var wire      1 -"   out_inter[1] [1] $end
$var wire      1 ."   out_inter[1] [0] $end
$var wire      1 /"   out_inter[0] [9] $end
$var wire      1 0"   out_inter[0] [8] $end
$var wire      1 1"   out_inter[0] [7] $end
$var wire      1 2"   out_inter[0] [6] $end
$var wire      1 3"   out_inter[0] [5] $end
$var wire      1 4"   out_inter[0] [4] $end
$var wire      1 5"   out_inter[0] [3] $end
$var wire      1 6"   out_inter[0] [2] $end
$var wire      1 7"   out_inter[0] [1] $end
$var wire      1 8"   out_inter[0] [0] $end
$var wire      1 9"   reg_line_in[5] [9] $end
$var wire      1 :"   reg_line_in[5] [8] $end
$var wire      1 ;"   reg_line_in[5] [7] $end
$var wire      1 <"   reg_line_in[5] [6] $end
$var wire      1 ="   reg_line_in[5] [5] $end
$var wire      1 >"   reg_line_in[5] [4] $end
$var wire      1 ?"   reg_line_in[5] [3] $end
$var wire      1 @"   reg_line_in[5] [2] $end
$var wire      1 A"   reg_line_in[5] [1] $end
$var wire      1 B"   reg_line_in[5] [0] $end
$var wire      1 C"   reg_line_in[4] [9] $end
$var wire      1 D"   reg_line_in[4] [8] $end
$var wire      1 E"   reg_line_in[4] [7] $end
$var wire      1 F"   reg_line_in[4] [6] $end
$var wire      1 G"   reg_line_in[4] [5] $end
$var wire      1 H"   reg_line_in[4] [4] $end
$var wire      1 I"   reg_line_in[4] [3] $end
$var wire      1 J"   reg_line_in[4] [2] $end
$var wire      1 K"   reg_line_in[4] [1] $end
$var wire      1 L"   reg_line_in[4] [0] $end
$var wire      1 M"   S_out[0] [9] $end
$var wire      1 N"   S_out[0] [8] $end
$var wire      1 O"   S_out[0] [7] $end
$var wire      1 P"   S_out[0] [6] $end
$var wire      1 Q"   S_out[0] [5] $end
$var wire      1 R"   S_out[0] [4] $end
$var wire      1 S"   S_out[0] [3] $end
$var wire      1 T"   S_out[0] [2] $end
$var wire      1 U"   S_out[0] [1] $end
$var wire      1 V"   S_out[0] [0] $end
$var wire      1 W"   S_out[1] [9] $end
$var wire      1 X"   S_out[1] [8] $end
$var wire      1 Y"   S_out[1] [7] $end
$var wire      1 Z"   S_out[1] [6] $end
$var wire      1 ["   S_out[1] [5] $end
$var wire      1 \"   S_out[1] [4] $end
$var wire      1 ]"   S_out[1] [3] $end
$var wire      1 ^"   S_out[1] [2] $end
$var wire      1 _"   S_out[1] [1] $end
$var wire      1 `"   S_out[1] [0] $end
$var wire      1 a"   S_out[2] [9] $end
$var wire      1 b"   S_out[2] [8] $end
$var wire      1 c"   S_out[2] [7] $end
$var wire      1 d"   S_out[2] [6] $end
$var wire      1 e"   S_out[2] [5] $end
$var wire      1 f"   S_out[2] [4] $end
$var wire      1 g"   S_out[2] [3] $end
$var wire      1 h"   S_out[2] [2] $end
$var wire      1 i"   S_out[2] [1] $end
$var wire      1 j"   S_out[2] [0] $end
$var wire      1 k"   reg_line_in[3] [9] $end
$var wire      1 l"   reg_line_in[3] [8] $end
$var wire      1 m"   reg_line_in[3] [7] $end
$var wire      1 n"   reg_line_in[3] [6] $end
$var wire      1 o"   reg_line_in[3] [5] $end
$var wire      1 p"   reg_line_in[3] [4] $end
$var wire      1 q"   reg_line_in[3] [3] $end
$var wire      1 r"   reg_line_in[3] [2] $end
$var wire      1 s"   reg_line_in[3] [1] $end
$var wire      1 t"   reg_line_in[3] [0] $end
$var wire      1 u"   S_out[3] [9] $end
$var wire      1 v"   S_out[3] [8] $end
$var wire      1 w"   S_out[3] [7] $end
$var wire      1 x"   S_out[3] [6] $end
$var wire      1 y"   S_out[3] [5] $end
$var wire      1 z"   S_out[3] [4] $end
$var wire      1 {"   S_out[3] [3] $end
$var wire      1 |"   S_out[3] [2] $end
$var wire      1 }"   S_out[3] [1] $end
$var wire      1 ~"   S_out[3] [0] $end
$var wire      1 !#   S_out[4] [9] $end
$var wire      1 "#   S_out[4] [8] $end
$var wire      1 ##   S_out[4] [7] $end
$var wire      1 $#   S_out[4] [6] $end
$var wire      1 %#   S_out[4] [5] $end
$var wire      1 &#   S_out[4] [4] $end
$var wire      1 '#   S_out[4] [3] $end
$var wire      1 (#   S_out[4] [2] $end
$var wire      1 )#   S_out[4] [1] $end
$var wire      1 *#   S_out[4] [0] $end
$var wire      1 +#   S_out[5] [9] $end
$var wire      1 ,#   S_out[5] [8] $end
$var wire      1 -#   S_out[5] [7] $end
$var wire      1 .#   S_out[5] [6] $end
$var wire      1 /#   S_out[5] [5] $end
$var wire      1 0#   S_out[5] [4] $end
$var wire      1 1#   S_out[5] [3] $end
$var wire      1 2#   S_out[5] [2] $end
$var wire      1 3#   S_out[5] [1] $end
$var wire      1 4#   S_out[5] [0] $end
$var wire      1 5#   reg_line_in[2] [9] $end
$var wire      1 6#   reg_line_in[2] [8] $end
$var wire      1 7#   reg_line_in[2] [7] $end
$var wire      1 8#   reg_line_in[2] [6] $end
$var wire      1 9#   reg_line_in[2] [5] $end
$var wire      1 :#   reg_line_in[2] [4] $end
$var wire      1 ;#   reg_line_in[2] [3] $end
$var wire      1 <#   reg_line_in[2] [2] $end
$var wire      1 =#   reg_line_in[2] [1] $end
$var wire      1 >#   reg_line_in[2] [0] $end
$var wire      1 ?#   S_out[6] [9] $end
$var wire      1 @#   S_out[6] [8] $end
$var wire      1 A#   S_out[6] [7] $end
$var wire      1 B#   S_out[6] [6] $end
$var wire      1 C#   S_out[6] [5] $end
$var wire      1 D#   S_out[6] [4] $end
$var wire      1 E#   S_out[6] [3] $end
$var wire      1 F#   S_out[6] [2] $end
$var wire      1 G#   S_out[6] [1] $end
$var wire      1 H#   S_out[6] [0] $end
$var wire      1 I#   S_out[7] [9] $end
$var wire      1 J#   S_out[7] [8] $end
$var wire      1 K#   S_out[7] [7] $end
$var wire      1 L#   S_out[7] [6] $end
$var wire      1 M#   S_out[7] [5] $end
$var wire      1 N#   S_out[7] [4] $end
$var wire      1 O#   S_out[7] [3] $end
$var wire      1 P#   S_out[7] [2] $end
$var wire      1 Q#   S_out[7] [1] $end
$var wire      1 R#   S_out[7] [0] $end
$var wire      1 S#   S_out[8] [9] $end
$var wire      1 T#   S_out[8] [8] $end
$var wire      1 U#   S_out[8] [7] $end
$var wire      1 V#   S_out[8] [6] $end
$var wire      1 W#   S_out[8] [5] $end
$var wire      1 X#   S_out[8] [4] $end
$var wire      1 Y#   S_out[8] [3] $end
$var wire      1 Z#   S_out[8] [2] $end
$var wire      1 [#   S_out[8] [1] $end
$var wire      1 \#   S_out[8] [0] $end
$var wire      1 ]#   reg_line_in[1] [9] $end
$var wire      1 ^#   reg_line_in[1] [8] $end
$var wire      1 _#   reg_line_in[1] [7] $end
$var wire      1 `#   reg_line_in[1] [6] $end
$var wire      1 a#   reg_line_in[1] [5] $end
$var wire      1 b#   reg_line_in[1] [4] $end
$var wire      1 c#   reg_line_in[1] [3] $end
$var wire      1 d#   reg_line_in[1] [2] $end
$var wire      1 e#   reg_line_in[1] [1] $end
$var wire      1 f#   reg_line_in[1] [0] $end
$var wire      1 g#   S_out[9] [9] $end
$var wire      1 h#   S_out[9] [8] $end
$var wire      1 i#   S_out[9] [7] $end
$var wire      1 j#   S_out[9] [6] $end
$var wire      1 k#   S_out[9] [5] $end
$var wire      1 l#   S_out[9] [4] $end
$var wire      1 m#   S_out[9] [3] $end
$var wire      1 n#   S_out[9] [2] $end
$var wire      1 o#   S_out[9] [1] $end
$var wire      1 p#   S_out[9] [0] $end
$var wire      1 q#   S_out[10] [9] $end
$var wire      1 r#   S_out[10] [8] $end
$var wire      1 s#   S_out[10] [7] $end
$var wire      1 t#   S_out[10] [6] $end
$var wire      1 u#   S_out[10] [5] $end
$var wire      1 v#   S_out[10] [4] $end
$var wire      1 w#   S_out[10] [3] $end
$var wire      1 x#   S_out[10] [2] $end
$var wire      1 y#   S_out[10] [1] $end
$var wire      1 z#   S_out[10] [0] $end
$var wire      1 {#   S_out[11] [9] $end
$var wire      1 |#   S_out[11] [8] $end
$var wire      1 }#   S_out[11] [7] $end
$var wire      1 ~#   S_out[11] [6] $end
$var wire      1 !$   S_out[11] [5] $end
$var wire      1 "$   S_out[11] [4] $end
$var wire      1 #$   S_out[11] [3] $end
$var wire      1 $$   S_out[11] [2] $end
$var wire      1 %$   S_out[11] [1] $end
$var wire      1 &$   S_out[11] [0] $end
$var wire      1 '$   reg_line_in[0] [9] $end
$var wire      1 ($   reg_line_in[0] [8] $end
$var wire      1 )$   reg_line_in[0] [7] $end
$var wire      1 *$   reg_line_in[0] [6] $end
$var wire      1 +$   reg_line_in[0] [5] $end
$var wire      1 ,$   reg_line_in[0] [4] $end
$var wire      1 -$   reg_line_in[0] [3] $end
$var wire      1 .$   reg_line_in[0] [2] $end
$var wire      1 /$   reg_line_in[0] [1] $end
$var wire      1 0$   reg_line_in[0] [0] $end
$var wire      1 1$   S_out[12] [9] $end
$var wire      1 2$   S_out[12] [8] $end
$var wire      1 3$   S_out[12] [7] $end
$var wire      1 4$   S_out[12] [6] $end
$var wire      1 5$   S_out[12] [5] $end
$var wire      1 6$   S_out[12] [4] $end
$var wire      1 7$   S_out[12] [3] $end
$var wire      1 8$   S_out[12] [2] $end
$var wire      1 9$   S_out[12] [1] $end
$var wire      1 :$   S_out[12] [0] $end
$var wire      1 ;$   S_out[13] [9] $end
$var wire      1 <$   S_out[13] [8] $end
$var wire      1 =$   S_out[13] [7] $end
$var wire      1 >$   S_out[13] [6] $end
$var wire      1 ?$   S_out[13] [5] $end
$var wire      1 @$   S_out[13] [4] $end
$var wire      1 A$   S_out[13] [3] $end
$var wire      1 B$   S_out[13] [2] $end
$var wire      1 C$   S_out[13] [1] $end
$var wire      1 D$   S_out[13] [0] $end
$var wire      1 E$   S_out[14] [9] $end
$var wire      1 F$   S_out[14] [8] $end
$var wire      1 G$   S_out[14] [7] $end
$var wire      1 H$   S_out[14] [6] $end
$var wire      1 I$   S_out[14] [5] $end
$var wire      1 J$   S_out[14] [4] $end
$var wire      1 K$   S_out[14] [3] $end
$var wire      1 L$   S_out[14] [2] $end
$var wire      1 M$   S_out[14] [1] $end
$var wire      1 N$   S_out[14] [0] $end
$var wire      1 O$   UNCONNECTED69  $end
$var wire      1 P$   UNCONNECTED70  $end
$var wire      1 Q$   UNCONNECTED71  $end
$var wire      1 R$   UNCONNECTED72  $end
$var wire      1 S$   UNCONNECTED73  $end
$var wire      1 T$   UNCONNECTED74  $end
$var wire      1 U$   UNCONNECTED75  $end
$var wire      1 V$   UNCONNECTED76  $end
$var wire      1 W$   UNCONNECTED77  $end
$var wire      1 X$   UNCONNECTED78  $end
$var wire      1 Y$   UNCONNECTED79  $end
$var wire      1 Z$   UNCONNECTED80  $end
$var wire      1 [$   UNCONNECTED81  $end
$var wire      1 \$   UNCONNECTED82  $end
$var wire      1 ]$   UNCONNECTED83  $end
$var wire      1 ^$   UNCONNECTED84  $end
$var wire      1 _$   UNCONNECTED85  $end
$var wire      1 `$   UNCONNECTED86  $end
$var wire      1 a$   UNCONNECTED87  $end
$var wire      1 b$   UNCONNECTED88  $end
$var wire      1 c$   n_0  $end
$var wire      1 d$   n_1  $end
$var wire      1 e$   n_2  $end
$var wire      1 f$   n_3  $end
$var wire      1 g$   n_4  $end
$var wire      1 h$   n_5  $end
$var wire      1 i$   n_6  $end
$var wire      1 j$   n_7  $end
$var wire      1 k$   n_8  $end
$var wire      1 l$   n_9  $end
$var wire      1 m$   n_10  $end
$var wire      1 n$   n_11  $end
$var wire      1 o$   n_12  $end
$var wire      1 p$   n_13  $end
$var wire      1 q$   n_14  $end
$var wire      1 r$   n_15  $end
$var wire      1 s$   n_16  $end
$var wire      1 t$   n_17  $end
$var wire      1 u$   n_18  $end
$var wire      1 v$   n_19  $end
$var wire      1 w$   n_20  $end
$var wire      1 x$   n_21  $end
$var wire      1 y$   n_22  $end
$var wire      1 z$   n_23  $end
$var wire      1 {$   n_24  $end
$upscope $end

$upscope $end

$enddefinitions $end
$dumpvars
z!
z"
z#
z$
z%
z&
z'
z(
z)
x*
0+
0,
0-
0.
0/
00
01
02
03
04
z5
z6
z7
z8
z9
z:
z;
z<
z=
x>
z?
z@
zA
zB
zC
zD
zE
zF
zG
zH
zI
zJ
zK
zL
zM
zN
zO
zP
zQ
zR
zS
zT
zU
zV
zW
zX
zY
zZ
z[
z\
z]
z^
x_
x`
xa
xb
xc
xd
xe
xf
xg
xh
xi
xj
xk
xl
xm
xn
0o
0p
0q
0r
xs
xt
xu
xv
xw
xx
xy
xz
x{
x|
x}
x~
x!!
x"!
x#!
x$!
x%!
x&!
x'!
x(!
x)!
x*!
x+!
x,!
x-!
x.!
0/!
00!
01!
02!
x3!
x4!
x5!
x6!
x7!
x8!
x9!
x:!
x;!
x<!
x=!
x>!
x?!
x@!
xA!
xB!
xC!
xD!
xE!
xF!
xG!
xH!
xI!
xJ!
xK!
xL!
0M!
0N!
0O!
0P!
xQ!
xR!
xS!
xT!
xU!
xV!
xW!
xX!
xY!
xZ!
x[!
x\!
x]!
x^!
x_!
x`!
xa!
xb!
xc!
xd!
xe!
xf!
xg!
xh!
xi!
xj!
0k!
0l!
0m!
0n!
xo!
xp!
xq!
xr!
xs!
xt!
xu!
xv!
xw!
xx!
xy!
xz!
x{!
x|!
x}!
x~!
x!"
x""
x#"
x$"
x%"
x&"
x'"
x("
x)"
x*"
0+"
0,"
0-"
0."
x/"
x0"
x1"
x2"
x3"
x4"
x5"
x6"
x7"
x8"
x9"
x:"
x;"
x<"
x="
x>"
x?"
x@"
xA"
xB"
xC"
xD"
xE"
xF"
xG"
xH"
xI"
xJ"
xK"
xL"
xM"
xN"
xO"
xP"
xQ"
xR"
xS"
xT"
xU"
xV"
zW"
zX"
xY"
xZ"
x["
x\"
z]"
z^"
z_"
z`"
xa"
xb"
xc"
xd"
xe"
xf"
xg"
xh"
xi"
xj"
xk"
xl"
xm"
xn"
xo"
xp"
xq"
xr"
xs"
xt"
xu"
xv"
xw"
xx"
xy"
xz"
x{"
x|"
x}"
x~"
z!#
z"#
x##
x$#
x%#
x&#
z'#
z(#
z)#
z*#
x+#
x,#
x-#
x.#
x/#
x0#
x1#
x2#
x3#
x4#
x5#
x6#
x7#
x8#
x9#
x:#
x;#
x<#
x=#
x>#
x?#
x@#
xA#
xB#
xC#
xD#
xE#
xF#
xG#
xH#
zI#
zJ#
xK#
xL#
xM#
xN#
zO#
zP#
zQ#
zR#
xS#
xT#
xU#
xV#
xW#
xX#
xY#
xZ#
x[#
x\#
x]#
x^#
x_#
x`#
xa#
xb#
xc#
xd#
xe#
xf#
xg#
xh#
xi#
xj#
xk#
xl#
xm#
xn#
xo#
xp#
zq#
zr#
xs#
xt#
xu#
xv#
zw#
zx#
zy#
zz#
x{#
x|#
x}#
x~#
x!$
x"$
x#$
x$$
x%$
x&$
x'$
x($
x)$
x*$
x+$
x,$
x-$
x.$
x/$
x0$
x1$
x2$
x3$
x4$
x5$
x6$
x7$
x8$
x9$
x:$
z;$
z<$
x=$
x>$
x?$
x@$
zA$
zB$
zC$
zD$
xE$
xF$
xG$
xH$
xI$
xJ$
xK$
xL$
xM$
xN$
zO$
zP$
zQ$
zR$
zS$
zT$
zU$
zV$
zW$
zX$
zY$
zZ$
z[$
z\$
z]$
z^$
z_$
z`$
za$
zb$
xc$
xd$
xe$
xf$
xg$
xh$
xi$
xj$
xk$
xl$
xm$
xn$
xo$
xp$
xq$
xr$
xs$
xt$
xu$
xv$
xw$
xx$
xy$
xz$
x{$
$end
#5000000
14
#10000000
04
#15000000
14
#20000000
04
#25000000
14
#30000000
04
#35000000
14
#40000000
04
#45000000
14
#50000000
04
#55000000
14
#60000000
04
#65000000
14
#70000000
04
#75000000
14
#80000000
04
#85000000
14
#90000000
04
#95000000
14
#100000000
04
#105000000
14
#110000000
04
#115000000
14
#120000000
04
#125000000
14
#130000000
04
#135000000
14
#140000000
04
#145000000
14
#150000000
04
#155000000
14
#160000000
04
#165000000
14
#170000000
04
#175000000
14
#180000000
04
#185000000
14
#190000000
04
#195000000
14
#200000000
04
#205000000
14
#210000000
04
#215000000
14
#220000000
04
#225000000
14
#230000000
04
#235000000
14
#240000000
04
#245000000
14
#250000000
04
#255000000
14
#260000000
04
#265000000
14
#270000000
04
#275000000
14
#280000000
04
#285000000
14
#290000000
04
#295000000
14
#300000000
04
#305000000
14
#310000000
04
#315000000
14
#320000000
04
#325000000
14
#330000000
04
#335000000
14
#340000000
04
#345000000
14
#350000000
04
#355000000
14
#360000000
04
#365000000
14
#370000000
04
